<svg xmlns="http://www.w3.org/2000/svg" width="135" height="40">

    <defs>

        <linearGradient id="google_play_a" x1="0.914884090423584" y1="0.04948153346776962" x2="-0.38351762294769287" y2="0.7190743684768677"><stop offset="0" stop-color="#00a0ff"/><stop offset=".01" stop-color="#00a1ff"/><stop offset=".26" stop-color="#00beff"/><stop offset=".51" stop-color="#00d2ff"/><stop offset=".76" stop-color="#00dfff"/><stop offset="1" stop-color="#00e3ff"/></linearGradient>
        <linearGradient id="google_play_b" x1="1.0768471956253052" y1="0.5000002384185791" x2="-1.3064039945602417" y2="0.5000002384185791"><stop offset="0" stop-color="#ffe000"/><stop offset=".41" stop-color="#ffbd00"/><stop offset=".78" stop-color="orange"/><stop offset="1" stop-color="#ff9c00"/></linearGradient>
        <linearGradient id="google_play_c" x1="0.8621929883956909" y1="0.17876914143562317" x2="-0.5014979243278503" y2="1.9470267295837402"><stop offset="0" stop-color="#ff3a44"/><stop offset="1" stop-color="#c31162"/></linearGradient>
        <linearGradient id="google_play_d" x1="-0.18753738701343536" y1="-0.5405221581459045" x2="0.42121031880378723" y2="0.24917031824588776"><stop offset="0" stop-color="#32a071"/><stop offset=".07" stop-color="#2da771"/><stop offset=".48" stop-color="#15cf74"/><stop offset=".8" stop-color="#06e775"/><stop offset="1" stop-color="#00f076"/></linearGradient>

    </defs>

    <path fill="none" d="M-9.895959071815014,-9.88080781698227 h155 v60 H-9.895959071815014 z" />
    <rect x="0.10404092818498611" y="0.11919218301773071" width="135" height="40" rx="5" ry="5" />
    <path d="M130.104040928185,0.9191921830177314 a4.2,4.2 0 0 1 4.2,4.2 v30 a4.2,4.2 0 0 1 -4.2,4.2 H5.104040928184986 a4.2,4.2 0 0 1 -4.2,-4.2 V5.119192183017731 a4.2,4.2 0 0 1 4.2,-4.2 h125 m0,-0.8 H5.104040928184986 a5,5 0 0 0 -5,5 v30 a5,5 0 0 0 5,5 h125 a5,5 0 0 0 5,-5 V5.119192183017731 a5,5 0 0 0 -5,-5 z" fill="#a6a6a6" />
    <path d="M68.24404092818499,21.86919218301773 A4.25,4.25 0 1 0 72.51404092818498,26.11919218301773 a4.19,4.19 0 0 0 -4.27,-4.25 zm0,6.83 a2.58,2.58 0 1 1 2.4,-2.58 a2.46,2.46 0 0 1 -2.4,2.58 zm-9.31,-6.83 A4.25,4.25 0 1 0 63.19404092818499,26.11919218301773 a4.19,4.19 0 0 0 -4.27,-4.25 zm0,6.83 A2.58,2.58 0 1 1 61.324040928184985,26.11919218301773 a2.46,2.46 0 0 1 -2.4,2.58 zm-11.09,-5.52 v1.8 h4.32 a3.77,3.77 0 0 1 -1,2.27 a4.42,4.42 0 0 1 -3.33,1.32 a4.8,4.8 0 0 1 0,-9.6 A4.6,4.6 0 0 1 51.104040928184986,20.25919218301773 l1.27,-1.27 A6.29,6.29 0 0 0 47.844040928184995,17.11919218301773 a6.61,6.61 0 1 0 0,13.21 a6,6 0 0 0 4.61,-1.85 a6,6 0 0 0 1.56,-4.22 a5.87,5.87 0 0 0 -0.1,-1.13 zm45.31,1.4 a4,4 0 0 0 -3.64,-2.71 a4,4 0 0 0 -4,4.25 a4.16,4.16 0 0 0 4.22,4.25 a4.23,4.23 0 0 0 3.54,-1.8800000000000003 l-1.45,-1 a2.43,2.43 0 0 1 -2.09,1.18 a2.16,2.16 0 0 1 -2.06,-1.29 l5.69,-2.35 zm-5.8,1.42 a2.33,2.33 0 0 1 2.22,-2.48 a1.6500000000000008,1.6500000000000008 0 0 1 1.58,0.9 zM82.73404092818498,30.11919218301773 h1.87 V17.61919218301773 h-1.87 zm-3.06,-7.3 h-0.07 a3,3 0 0 0 -2.24,-1 a4.26,4.26 0 0 0 0,8.51 a2.9,2.9 0 0 0 2.24,-1 h0.06000000000000032 v0.6100000000000033 c0,1.6300000000000003 -0.8700000000000033,2.5 -2.27,2.5 a2.35,2.35 0 0 1 -2.14,-1.51 l-1.6300000000000003,0.6800000000000044 A4.05,4.05 0 0 0 77.39404092818499,34.11919218301773 c2.19,0 4,-1.29 4,-4.43 V22.11919218301773 h-1.7200000000000002 zm-2.14,5.88 a2.59,2.59 0 0 1 0,-5.16 A2.4,2.4 0 0 1 79.80404092818499,26.11919218301773 a2.38,2.38 0 0 1 -2.2800000000000002,2.58 zm24.38,-11.08 h-4.47 V30.11919218301773 h1.87 v-4.74 h2.6100000000000003 a3.89,3.89 0 1 0 0,-7.76 zm0,6 h-2.6100000000000003 v-4.26 h2.6500000000000004 a2.14,2.14 0 1 1 0,4.29 zm11.53,-1.8 a3.5,3.5 0 0 0 -3.33,1.9100000000000001 l1.6600000000000001,0.6900000000000047 a1.77,1.77 0 0 1 1.7000000000000002,-0.92 a1.8,1.8 0 0 1 2,1.61 v0.13 a4.13,4.13 0 0 0 -1.9500000000000002,-0.4800000000000003 c-1.79,0 -3.6,1 -3.6,2.81 a2.89,2.89 0 0 0 3.1,2.75 a2.63,2.63 0 0 0 2.4,-1.2 h0.06000000000000032 v1 h1.8 v-4.8100000000000005 c0,-2.19 -1.6600000000000001,-3.46 -3.79,-3.46 zm-0.23,6.85 c-0.6100000000000033,0 -1.46,-0.31000000000000166 -1.46,-1.06 c0,-1 1.06,-1.33 2,-1.33 a3.3200000000000003,3.3200000000000003 0 0 1 1.7000000000000002,0.4200000000000003 a2.26,2.26 0 0 1 -2.19,2 zM123.844040928185,22.11919218301773 l-2.14,5.42 h-0.06000000000000032 L119.42404092818498,22.11919218301773 h-2 l3.33,7.58 l-1.9,4.21 h1.9500000000000002 L125.92404092818498,22.11919218301773 zm-16.81,8 h1.87 V17.61919218301773 h-1.87 z" fill="#fff" />
    <path d="M10.544040928184987,7.65919218301773 a2,2 0 0 0 -0.46,1.4 v22.12 a2,2 0 0 0 0.46,1.4 l0.07,0.07 L23.004040928184985,20.269192183017733 v-0.2900000000000003 L10.614040928184988,7.58919218301773 z" fill="url(#google_play_a)" />
    <path d="M27.104040928184986,24.399192183017732 l-4.1,-4.13 v-0.2900000000000003 l4.1,-4.14 l0.09000000000000068,0.05000000000000026 L32.104040928184986,18.679192183017726 c1.4,0.79 1.4,2.09 0,2.89 l-4.8900000000000015,2.7800000000000002 z" fill="url(#google_play_b)" />
    <path d="M27.224040928184984,24.33919218301773 L23.004040928184985,20.11919218301773 L10.544040928184987,32.57919218301773 a1.6300000000000003,1.6300000000000003 0 0 0 2.08,0.06000000000000032 l14.61,-8.3 " fill="url(#google_play_c)" />
    <path d="M27.224040928184984,15.899192183017732 l-14.61,-8.3 a1.6300000000000003,1.6300000000000003 0 0 0 -2.08,0.06000000000000032 L23.004040928184985,20.11919218301773 z" fill="url(#google_play_d)" />
    <path d="M27.104040928184986,24.249192183017733 l-14.49,8.25 a1.6700000000000008,1.6700000000000008 0 0 1 -2,0 l-0.07,0.07 l0.07,0.07 a1.6600000000000001,1.6600000000000001 0 0 0 2,0 l14.61,-8.3 z" style="isolation:isolate" opacity=".2" />
    <path d="M10.544040928184987,32.43919218301773 a2,2 0 0 1 -0.46,-1.4 v0.15000000000000024 a2,2 0 0 0 0.46,1.4 l0.07,-0.07 zM32.104040928184986,21.41919218301773 l-5,2.83 l0.09000000000000068,0.09000000000000068 L32.104040928184986,21.559192183017732 A1.75,1.75 0 0 0 33.104040928184986,20.11919218301773 a1.86,1.86 0 0 1 -1,1.3 z" style="isolation:isolate" opacity=".12" />
    <path d="M12.614040928184988,7.739192183017732 L32.104040928184986,18.81919218301773 a1.86,1.86 0 0 1 1,1.3 a1.75,1.75 0 0 0 -1,-1.44 L12.614040928184988,7.59919218301773 c-1.4,-0.79 -2.54,-0.13 -2.54,1.47 v0.15000000000000024 c0.030000000000000183,-1.61 1.15,-2.27 2.54,-1.48 z" style="isolation:isolate" fill="#fff" opacity=".25" />
    <path d="M42.214040928184986,14.38919218301773 h-0.7400000000000033 v-2 H42.104040928184986 a2.8600000000000003,2.8600000000000003 0 0 0 0.7600000000000038,-2.3 V7.119192183017731 h4 v5.26 h0.6700000000000043 v2 h-0.7400000000000033 V13.11919218301773 h-4.58 zM43.604040928184986,10.11919218301773 a4,4 0 0 1 -0.5700000000000006,2.3 h3 v-4.5600000000000005 H43.604040928184986 zM53.51404092818498,12.33919218301773 a3.12,3.12 0 0 1 -4.4,0 a3.24,3.24 0 0 1 0,-4.45 a3.1,3.1 0 0 1 4.4,0 a3.23,3.23 0 0 1 0,4.45 zm-3.83,-0.5 a2.31,2.31 0 0 0 3.26,0 a2.56,2.56 0 0 0 0,-3.44 a2.31,2.31 0 0 0 -3.26,0 a2.56,2.56 0 0 0 0,3.44 zM58.28404092818499,13.24919218301773 A3.06,3.06 0 0 1 55.16404092818499,10.11919218301773 a3.06,3.06 0 0 1 3.12,-3.13 a2.77,2.77 0 0 1 2.2,1 l-0.54,0.52 a2,2 0 0 0 -1.6700000000000008,-0.7600000000000038 a2.27,2.27 0 0 0 -1.6600000000000001,0.6600000000000042 a2.5700000000000003,2.5700000000000003 0 0 0 0,3.47 a2.27,2.27 0 0 0 1.6600000000000001,0.6600000000000042 a2.37,2.37 0 0 0 1.83,-0.8900000000000038 l0.54,0.54 a2.92,2.92 0 0 1 -1,0.78 a3.15,3.15 0 0 1 -1.36,0.28 zM63.78404092818499,13.11919218301773 h-0.77 v-5.26 h-1.6800000000000006 V7.119192183017731 h4.12 v0.7400000000000033 h-1.6700000000000008 zM70.75404092818499,7.119192183017731 l-2.27,5.06 A1.51,1.51 0 0 1 67.10404092818499,13.24919218301773 a1.54,1.54 0 0 1 -0.6000000000000006,-0.13 l0.2,-0.7100000000000006 a0.81,0.81 0 0 0 0.4,0.11000000000000022 a0.7100000000000006,0.7100000000000006 0 0 0 0.4200000000000003,-0.1 a0.9400000000000006,0.9400000000000006 0 0 0 0.27,-0.38000000000000167 l0.2200000000000009,-0.4800000000000003 l-2,-4.43 h0.91 l1.48,3.44 L69.84404092818498,7.119192183017731 zM71.62404092818498,13.11919218301773 v-6 h4.34 v6 h-0.77 v-5.26 h-2.8 V13.11919218301773 zM77.33404092818499,13.11919218301773 v-6 H78.10404092818499 v2.5700000000000003 h3 V7.119192183017731 h0.77 v6 H81.10404092818499 v-2.71 h-3 V13.11919218301773 zM88.16404092818499,12.33919218301773 a3.12,3.12 0 0 1 -4.4,0 a3.24,3.24 0 0 1 0,-4.45 a3.1,3.1 0 0 1 4.4,0 a3.23,3.23 0 0 1 0,4.45 zm-3.83,-0.5 a2.31,2.31 0 0 0 3.26,0 a2.56,2.56 0 0 0 0,-3.44 a2.31,2.31 0 0 0 -3.26,0 a2.56,2.56 0 0 0 0,3.44 zM92.19404092818499,13.11919218301773 v-6 h2.17 a1.7600000000000002,1.7600000000000002 0 0 1 1.22,0.46 a1.51,1.51 0 0 1 0.52,1.17 a1.31,1.31 0 0 1 -0.2200000000000009,0.7500000000000033 a1.3900000000000001,1.3900000000000001 0 0 1 -0.5900000000000006,0.4900000000000003 a1.52,1.52 0 0 1 0.7300000000000006,0.52 a1.36,1.36 0 0 1 0.2900000000000003,0.8600000000000033 a1.57,1.57 0 0 1 -0.54,1.22 a1.85,1.85 0 0 1 -1.28,0.4900000000000003 zm0.77,-3.43 h1.4 a0.9,0.9 0 0 0 0.7000000000000006,-0.2900000000000003 A0.8900000000000038,0.8900000000000038 0 0 0 95.10404092818499,8.11919218301773 a0.8600000000000033,0.8600000000000033 0 0 0 -0.6700000000000043,-0.2900000000000003 h-1.4300000000000002 zm0,2.6900000000000004 h1.55 a0.92,0.92 0 0 0 0.7200000000000006,-0.31000000000000166 a1,1 0 0 0 0.28,-0.6800000000000044 a1,1 0 0 0 -1,-1 h-1.52 z" fill="#fff" stroke="#fff" stroke-miterlimit="10" stroke-width=".2" />

</svg>