<svg height="17" viewbox="0 0 17 17" width="17" xmlns="http://www.w3.org/2000/svg">
    <g transform="translate(-449 -550)">
        <path d="M464.94 551.42a.64.64 0 0 0-.63-.42h-13.62c-.3 0-.51.14-.63.42-.12.29-.07.54.15.74l5.25 5.25v5.18c0 .19.07.35.2.48l2.72 2.73c.13.13.29.2.48.2.09 0 .18-.02.27-.05a.64.64 0 0 0 .41-.63v-7.91l5.25-5.25c.22-.2.27-.45.15-.74z" fill="#fff" fill-opacity="0" stroke="#f04c23" stroke-miterlimit="50"></path>
    </g>
</svg>